…
    Rows: 90,864
    Columns: 5
    $ t_     <dttm> 2020-11-06 19:10:39, 2020-11-07 01:07:00, 2020-11-07 07:05:54,…
    $ x_     <dbl> -129.2876, -129.3327, -129.3022, -129.3021, -129.3146, -129.338…
    $ y_     <dbl> 60.24530, 60.19127, 60.17469, 60.17254, 60.14960, 60.14822, 60.…
    $ season <chr> "earlywinter", "earlywinter", "earlywinter", "earlywinter", "ea…
    $ id     <chr> "43163", "43163", "43163", "43163", "43163", "43163", "43163", …

``` r
trk <- make_track(gps, x_, y_, t_, id = id, season=season, crs = 4326) |>
  transform_coords(crs_to = 3578)
trk
```

    # A tibble: 90,864 × 5
            x_      y_ t_                  id    season     
     *   <dbl>   <dbl> <dttm>              <chr> <chr>      
     1 606014. 563800. 2020-11-03 19:19:10 43161 earlywinter
     2 606921. 564631. 2020-11-03 19:19:11 43147 earlywinter
     3 607072. 564647. 2020-11-03 19:19:15 43146 earlywinter
     4 613483. 568035. 2020-11-04 01:18:15 43144 earlywinter
     5 614729. 567940. 2020-11-04 01:18:22 43159 earlywinter
     6 614729. 567937. 2020-11-04 01:18:37 43141 earlywinter
     7 605307. 565229. 2020-11-04 01:18:38 43158 earlywinter
     8 608083. 564296. 2020-11-04 01:18:39 43164 earlywinter
     9 614007. 569526. 2020-11-04 01:18:40 43147 earlywinter
    10 614018. 569523. 2020-11-04 01:19:24 43146 earlywinter
    # ℹ 90,854 more rows
…
